{
    "combine_datasets": ["modulated_lvis"],
    "combine_datasets_val": ["modulated_lvis"],
    "coco2017_path": "/mnt/lustre/share_data/openmmlab/datasets/mmdetection/coco",
    "modulated_lvis_ann_path": "Annotations/",
    "lvis_subset": 10
}
